Manipulation de données avec dplyr
…
Avant toutes choses

On crée un projet

On crée un script

On charge les données fruits

library(dplyr)
data("fruits", package = "minidebuter")

Fruits est un fait un “tibble”

fruits
#> # A tibble: 51 × 18
#>    nom           groupe Energie   Eau Proteines Glucides Lipides Sucres
#>    <chr>         <chr>    <dbl> <dbl>     <dbl>    <dbl>   <dbl>  <dbl>
#>  1 Abricot       crus       194  87.1      0.81     9.01    0.25    6.7
#>  2 Abricot       secs      1010  24.7      2.88    59.1     0.5    34.3
#>  3 Ananas        exoti…     304  81.3      0.94    15.1     0.25   14.9
#>  4 Banane        exoti…     383  75.8      1.06    19.7     0.25   15.6
#>  5 Canneberge    secs      1410  14.6      0.25    76.4     1      72.8
#>  6 Cerise        crus       235  85.7      0.81    13       0.25   10  
#>  7 Citron        crus       118  91.3      0.25     1.56    0.25    0.8
#>  8 Clementine    crus       200  87        0.81     9.17    0.25    8.6
#>  9 CompoteMulti… compo…     279  82.9      0.25    15.3     0.08   14.6
#> 10 CompotePomme  compo…     432  72.9      0.23    24.4     0.21   20.7
#> # ℹ 41 more rows
#> # ℹ 10 more variables: Fructose <dbl>, Fibres <dbl>, Calcium <dbl>,
#> #   Magnesium <dbl>, Phosphore <dbl>, Potassium <dbl>, Zinc <dbl>,
#> #   BetaCarotene <dbl>, VitamineE <dbl>, VitamineC <dbl>
…
library(dplyr) # ou require(dplyr)

Ou bien charger tidyverse…

library(tidyverse)

… mais cela chargera d’autres packages en plus

Le format “tibble”

Les données sont au format “tibble” : c’est comme des “data-frames” mais en mieux !

fruits
#> # A tibble: 51 × 18
#>    nom           groupe Energie   Eau Proteines Glucides Lipides Sucres
#>    <chr>         <chr>    <dbl> <dbl>     <dbl>    <dbl>   <dbl>  <dbl>
#>  1 Abricot       crus       194  87.1      0.81     9.01    0.25    6.7
#>  2 Abricot       secs      1010  24.7      2.88    59.1     0.5    34.3
#>  3 Ananas        exoti…     304  81.3      0.94    15.1     0.25   14.9
#>  4 Banane        exoti…     383  75.8      1.06    19.7     0.25   15.6
#>  5 Canneberge    secs      1410  14.6      0.25    76.4     1      72.8
#>  6 Cerise        crus       235  85.7      0.81    13       0.25   10  
#>  7 Citron        crus       118  91.3      0.25     1.56    0.25    0.8
#>  8 Clementine    crus       200  87        0.81     9.17    0.25    8.6
#>  9 CompoteMulti… compo…     279  82.9      0.25    15.3     0.08   14.6
#> 10 CompotePomme  compo…     432  72.9      0.23    24.4     0.21   20.7
#> # ℹ 41 more rows
#> # ℹ 10 more variables: Fructose <dbl>, Fibres <dbl>, Calcium <dbl>,
#> #   Magnesium <dbl>, Phosphore <dbl>, Potassium <dbl>, Zinc <dbl>,
#> #   BetaCarotene <dbl>, VitamineE <dbl>, VitamineC <dbl>
…
fruits %>% 
  select(Energie:Proteines, - Eau)

On peut sélectionner des plages entières de colonnes sur la base de leurs noms, en enlever avec le -, combiner tout cela avec la fonction c()… ou pas !

Attention, la flexibilité a un coût !

Trier des lignes

Avec les fonctions arrange et desc.

fruits %>% 
  select(Energie, Sucres, Fibres) %>%
  arrange(desc(Fibres))
#> # A tibble: 51 × 3
#>    Energie Sucres Fibres
#>      <dbl>  <dbl>  <dbl>
#>  1    1010  34.3     8.3
#>  2     425   8.5     6.8
#>  3    1410  72.8     5.7
#>  4     198   6.1     5.2
#>  5     969  38.1     5.1
#>  6     289   6.63    4.6
#>  7     206   5.4     4.3
#>  8     170   2.1     4.3
#>  9    1360  70.3     4.2
#> 10     293  12.2     4.1
#> # ℹ 41 more rows

Avec les fonctions classiques

fruits[
  order(fruits$Fibres, decreasing = TRUE),
  c("Energie", "Sucres", "Fibres")]
#> # A tibble: 51 × 3
#>    Energie Sucres Fibres
#>      <dbl>  <dbl>  <dbl>
#>  1    1010  34.3     8.3
#>  2     425   8.5     6.8
#>  3    1410  72.8     5.7
#>  4     198   6.1     5.2
#>  5     969  38.1     5.1
#>  6     289   6.63    4.6
#>  7     206   5.4     4.3
#>  8     170   2.1     4.3
#>  9    1360  70.3     4.2
#> 10     293  12.2     4.1
#> # ℹ 41 more rows
…
Grouper des lignes

Avec la fonction group_by :

fruits %>% group_by(groupe)
#> # A tibble: 51 × 18
#> # Groups:   groupe [4]
#>    nom           groupe Energie   Eau Proteines Glucides Lipides Sucres
#>    <chr>         <chr>    <dbl> <dbl>     <dbl>    <dbl>   <dbl>  <dbl>
#>  1 Abricot       crus       194  87.1      0.81     9.01    0.25    6.7
#>  2 Abricot       secs      1010  24.7      2.88    59.1     0.5    34.3
#>  3 Ananas        exoti…     304  81.3      0.94    15.1     0.25   14.9
#>  4 Banane        exoti…     383  75.8      1.06    19.7     0.25   15.6
#>  5 Canneberge    secs      1410  14.6      0.25    76.4     1      72.8
#>  6 Cerise        crus       235  85.7      0.81    13       0.25   10  
#>  7 Citron        crus       118  91.3      0.25     1.56    0.25    0.8
#>  8 Clementine    crus       200  87        0.81     9.17    0.25    8.6
#>  9 CompoteMulti… compo…     279  82.9      0.25    15.3     0.08   14.6
#> 10 CompotePomme  compo…     432  72.9      0.23    24.4     0.21   20.7
#> # ℹ 41 more rows
#> # ℹ 10 more variables: Fructose <dbl>, Fibres <dbl>, Calcium <dbl>,
#> #   Magnesium <dbl>, Phosphore <dbl>, Potassium <dbl>, Zinc <dbl>,
#> #   BetaCarotene <dbl>, VitamineE <dbl>, VitamineC <dbl>
…
